---
http_interactions:
- request:
    method: get
    uri: https://api.bestbuy.com/v1/products(longDescription=sennheiser*)?apiKey=qdu3pcgpbg7e9zeamgypbkam&format=json&pageSize=15&show=sku,name,salePrice,customerReviewAverage,shortDescription,image
    body:
      encoding: US-ASCII
      string: ''
    headers:
      User-Agent:
      - Faraday v0.9.2
      Accept-Encoding:
      - gzip;q=1.0,deflate;q=0.6,identity;q=0.3
      Accept:
      - "*/*"
  response:
    status:
      code: 200
      message: OK
    headers:
      X-Mashery-Responder:
      - prod-j-worker-lax-02.mashery.com
      Content-Type:
      - application/json; charset=UTF-8
      Content-Length:
      - '7357'
      Server:
      - thin 1.6.1 codename Death Proof
      Date:
      - Tue, 08 Mar 2016 17:36:20 GMT
      Connection:
      - close
    body:
      encoding: UTF-8
      string: |-
        {
          "from": 1,
          "to": 15,
          "total": 131,
          "currentPage": 1,
          "totalPages": 9,
          "queryTime": "0.004",
          "totalTime": "0.038",
          "partial": false,
          "canonicalUrl": "/v1/products(longDescription=\"sennheiser*\")?show=sku,name,salePrice,customerReviewAverage,shortDescription,image&format=json&apiKey=qdu3pcgpbg7e9zeamgypbkam",
          "products": [
            {
              "sku": 9678429,
              "name": "Sennheiser - Camera-Mount Wireless Microphone System - Black",
              "salePrice": 629.95,
              "customerReviewAverage": null,
              "shortDescription": "SENNHEISER Camera-Mount Wireless Microphone System: Invisible clip-on microphone; sturdy metal housing; automatic frequency management; easy-to-read illuminated display; 4-level battery indicator; 626-668MHz frequency range",
              "image": "http://images.bestbuy.com/BestBuy_US/images/products/9678/9678429_sa.jpg"
            },
            {
              "sku": 9678447,
              "name": "Sennheiser - Camera-Mount Wireless Microphone System - Black",
              "salePrice": 629.95,
              "customerReviewAverage": null,
              "shortDescription": "SENNHEISER Camera-Mount Wireless Microphone System: Invisible clip-on microphone; sturdy metal housing; automatic frequency management; easy-to-read illuminated display; 4-level battery indicator; 566-608MHz frequency range",
              "image": "http://images.bestbuy.com/BestBuy_US/images/products/9678/9678447_sa.jpg"
            },
            {
              "sku": 6131454,
              "name": "Sennheiser - CH 650 S 10' Balanced Headphone Cable - Black",
              "salePrice": 239.99,
              "customerReviewAverage": null,
              "shortDescription": "SENNHEISER CH 650 S 10' Balanced Headphone Cable: Compatible with Sennheiser headphone amplifiers; oxygen-free copper cables; gold-plated contacts; 4pole XLR with 2 mini plugs",
              "image": "http://images.bestbuy.com/BestBuy_US/images/products/6131/6131454_sa.jpg"
            },
            {
              "sku": 6131463,
              "name": "Sennheiser - CH 700 S 10' Balanced Headphone Cable - Black",
              "salePrice": 319.99,
              "customerReviewAverage": null,
              "shortDescription": "SENNHEISER CH 700 S 10' Balanced Headphone Cable: Compatible with Sennheiser headphones and headphone amplifiers; oxygen-free copper cables with silver coating; gold-plated contacts; 4pole XLR with two 2.5mm jacks",
              "image": "http://img.bbystatic.com/BestBuy_US/images/products/6131/6131463_rc.jpg"
            },
            {
              "sku": 6131445,
              "name": "Sennheiser - CH 800 S 10' Balanced Headphone Cable - Black",
              "salePrice": 379.99,
              "customerReviewAverage": null,
              "shortDescription": "SENNHEISER CH 800 S 10' Balanced Headphone Cable: Compatible with Sennheiser headphones and headphone amplifiers; oxygen-free copper cables with silver coating; gold-plated contacts; 4pole XLR with 2 ODU connectors",
              "image": "http://img.bbystatic.com/BestBuy_US/images/products/6131/6131445_rc.jpg"
            },
            {
              "sku": 9678438,
              "name": "Sennheiser - Connection Cable for Sennheiser MKE 600 Microphone",
              "salePrice": 19.95,
              "customerReviewAverage": null,
              "shortDescription": "SENNHEISER Connection Cable for Sennheiser MKE 600 Microphone: Connects Sennheiser MKE 600 microphone to most smartphones; XLR-3 connector-to-3.5mm jack plug; coiled cable",
              "image": "http://img.bbystatic.com/BestBuy_US/images/products/9678/9678438_sa.jpg"
            },
            {
              "sku": 9068146,
              "name": "Sennheiser - CX 1.00 Earbud Headphones - Black",
              "salePrice": 44.95,
              "customerReviewAverage": "5.0",
              "shortDescription": "SENNHEISER CX 1.00 Earbud Headphones: Noise-blocking design; dynamic transducer principle; ultrasmall design; 3.5mm connector; 3.9' cable; includes 4 sizes of ear adapters",
              "image": "http://images.bestbuy.com/BestBuy_US/images/products/9068/9068146_sa.jpg"
            },
            {
              "sku": 9068191,
              "name": "Sennheiser - CX 1.00 Earbud Headphones - White",
              "salePrice": 44.95,
              "customerReviewAverage": null,
              "shortDescription": "SENNHEISER CX 1.00 Earbud Headphones: Noise-blocking design; dynamic transducer principle; ultrasmall design; 3.5mm connector; 3.9' cable; includes 4 sizes of ear adapters",
              "image": "http://images.bestbuy.com/BestBuy_US/images/products/9068/9068191_sa.jpg"
            },
            {
              "sku": 9068164,
              "name": "Sennheiser - CX 2.00G Earbud Headphones - Black",
              "salePrice": 54.95,
              "customerReviewAverage": "4.0",
              "shortDescription": "SENNHEISER CX 2.00G Earbud Headphones: Dynamic transducers; 3-button in-line remote with integrated microphone; 4 ear adapter sizes; 3.9' cable; 3.5mm angled plug",
              "image": "http://images.bestbuy.com/BestBuy_US/images/products/9068/9068164_sa.jpg"
            },
            {
              "sku": 9068155,
              "name": "Sennheiser - CX 2.00G Earbud Headphones - White",
              "salePrice": 54.95,
              "customerReviewAverage": "1.0",
              "shortDescription": "SENNHEISER CX 2.00G Earbud Headphones: Dynamic transducers; 3-button in-line remote with integrated microphone; 4 ear adapter sizes; 3.9' cable; 3.5mm angled plug",
              "image": "http://images.bestbuy.com/BestBuy_US/images/products/9068/9068155_sa.jpg"
            },
            {
              "sku": 9068031,
              "name": "Sennheiser - CX 2.00i Earbud Headphones - Black",
              "salePrice": 54.95,
              "customerReviewAverage": null,
              "shortDescription": "SENNHEISER CX 2.00i Earbud Headphones: Dynamic transducers; 3-button in-line remote with integrated microphone; 4 ear adapter sizes; 3.9' cable; 3.5mm angled plug",
              "image": "http://images.bestbuy.com/BestBuy_US/images/products/9068/9068031_sa.jpg"
            },
            {
              "sku": 9068182,
              "name": "Sennheiser - CX 2.00i Earbud Headphones - White",
              "salePrice": 54.95,
              "customerReviewAverage": null,
              "shortDescription": "SENNHEISER CX 2.00i Earbud Headphones: Dynamic transducers; 3-button in-line remote with integrated microphone; 4 ear adapter sizes; 3.9' cable; 3.5mm angled plug",
              "image": "http://images.bestbuy.com/BestBuy_US/images/products/9068/9068182_sa.jpg"
            },
            {
              "sku": 9068119,
              "name": "Sennheiser - CX 3.00 Earbud Headphones - Black",
              "salePrice": 51.99,
              "customerReviewAverage": "3.5",
              "shortDescription": "SENNHEISER CX 3.00 Earbud Headphones: Dynamic transducers; 4 ear adapter sizes; 3.9' elliptical, tangle-free cable; 3.5mm angled plug; includes a carrying case",
              "image": "http://images.bestbuy.com/BestBuy_US/images/products/9068/9068119_sa.jpg"
            },
            {
              "sku": 9068022,
              "name": "Sennheiser - CX 3.00 Earbud Headphones - Red",
              "salePrice": 51.99,
              "customerReviewAverage": "3.5",
              "shortDescription": "SENNHEISER CX 3.00 Earbud Headphones: Dynamic transducers; 4 ear adapter sizes; 3.9' elliptical, tangle-free cable; 3.5mm angled plug; includes a carrying case",
              "image": "http://images.bestbuy.com/BestBuy_US/images/products/9068/9068022_sa.jpg"
            },
            {
              "sku": 9068004,
              "name": "Sennheiser - CX 3.00 Earbud Headphones - White",
              "salePrice": 45.99,
              "customerReviewAverage": "3.5",
              "shortDescription": "SENNHEISER CX 3.00 Earbud Headphones: Dynamic transducers; 4 ear adapter sizes; 3.9' elliptical, tangle-free cable; 3.5mm angled plug; includes a carrying case",
              "image": "http://images.bestbuy.com/BestBuy_US/images/products/9068/9068004_sa.jpg"
            }
          ]
        }
    http_version: 
  recorded_at: Tue, 08 Mar 2016 17:36:20 GMT
recorded_with: VCR 3.0.1
